Tag Library Index 1.1.0
BUILDPATH_DIRTY|false
BUILDPATH_ENTRIES|51
JAR|false|false|C:/Users/axizuser/Desktop/pleiades/java/8/jre/lib/ext/cldrdata.jar
JAR|false|false|C:/Users/axizuser/Desktop/pleiades/java/8/jre/lib/ext/jfxrt.jar
JAR|false|false|C:/Users/axizuser/Desktop/pleiades/tomcat/8/lib/jaspic-api.jar
JAR|false|false|C:/Users/axizuser/Desktop/pleiades/java/8/jre/lib/ext/sunjce_provider.jar
JAR|false|false|C:/Users/axizuser/Desktop/pleiades/tomcat/8/lib/tomcat-dbcp.jar
JAR|false|false|C:/Users/axizuser/Desktop/pleiades/java/8/jre/lib/rt.jar
JAR|false|false|C:/Users/axizuser/Desktop/pleiades/tomcat/8/lib/tomcat-api.jar
JAR|false|false|C:/Users/axizuser/Desktop/pleiades/tomcat/8/lib/tomcat-i18n-zh-CN.jar
JAR|false|false|C:/Users/axizuser/Desktop/pleiades/java/8/jre/lib/ext/dnsns.jar
JAR|false|false|C:/Users/axizuser/Desktop/pleiades/tomcat/8/lib/annotations-api.jar
JAR|false|false|C:/Users/axizuser/Desktop/pleiades/tomcat/8/lib/websocket-api.jar
JAR|false|false|C:/Users/axizuser/Desktop/pleiades/tomcat/8/lib/jsp-api.jar
JAR|false|false|C:/Users/axizuser/Desktop/pleiades/tomcat/8/lib/ecj-4.6.3.jar
JAR|false|false|C:/Users/axizuser/Desktop/pleiades/tomcat/8/lib/catalina-tribes.jar
JAR|false|false|C:/Users/axizuser/Desktop/pleiades/tomcat/8/lib/tomcat-i18n-ja.jar
JAR|false|false|C:/Users/axizuser/Desktop/pleiades/workspace/DbExam7/WebContent/WEB-INF/lib/postgresql-42.2.11.jar
JAR|false|false|C:/Users/axizuser/Desktop/pleiades/tomcat/8/lib/catalina-ha.jar
JAR|false|false|C:/Users/axizuser/Desktop/pleiades/java/8/jre/lib/ext/sunpkcs11.jar
JAR|false|false|C:/Users/axizuser/Desktop/pleiades/tomcat/8/lib/tomcat-i18n-de.jar
JAR|false|false|C:/Users/axizuser/Desktop/pleiades/java/8/jre/lib/ext/sunec.jar
JAR|false|false|C:/Users/axizuser/Desktop/pleiades/workspace/DbExam7/WebContent/WEB-INF/lib/taglibs-standard-spec-1.2.5.jar
JAR|false|false|C:/Users/axizuser/Desktop/pleiades/workspace/DbExam7/WebContent/WEB-INF/lib/taglibs-standard-impl-1.2.5.jar
URL|false|jar:file:C:/Users/axizuser/Desktop/pleiades/workspace/DbExam7/WebContent/WEB-INF/lib/taglibs-standard-impl-1.2.5.jar!/META-INF/fmt-1_0-rt.tld
URL|true|jar:file:C:/Users/axizuser/Desktop/pleiades/workspace/DbExam7/WebContent/WEB-INF/lib/taglibs-standard-impl-1.2.5.jar!/META-INF/fmt-1_0-rt.tld
URL|false|jar:file:C:/Users/axizuser/Desktop/pleiades/workspace/DbExam7/WebContent/WEB-INF/lib/taglibs-standard-impl-1.2.5.jar!/META-INF/c-1_0-rt.tld
URL|false|jar:file:C:/Users/axizuser/Desktop/pleiades/workspace/DbExam7/WebContent/WEB-INF/lib/taglibs-standard-impl-1.2.5.jar!/META-INF/sql-1_0-rt.tld
URL|true|jar:file:C:/Users/axizuser/Desktop/pleiades/workspace/DbExam7/WebContent/WEB-INF/lib/taglibs-standard-impl-1.2.5.jar!/META-INF/sql-1_0-rt.tld
URL|false|jar:file:C:/Users/axizuser/Desktop/pleiades/workspace/DbExam7/WebContent/WEB-INF/lib/taglibs-standard-impl-1.2.5.jar!/META-INF/c-1_1.tld
URL|false|jar:file:C:/Users/axizuser/Desktop/pleiades/workspace/DbExam7/WebContent/WEB-INF/lib/taglibs-standard-impl-1.2.5.jar!/META-INF/permittedTaglibs.tld
URL|true|jar:file:C:/Users/axizuser/Desktop/pleiades/workspace/DbExam7/WebContent/WEB-INF/lib/taglibs-standard-impl-1.2.5.jar!/META-INF/c-1_0-rt.tld
URL|true|jar:file:C:/Users/axizuser/Desktop/pleiades/workspace/DbExam7/WebContent/WEB-INF/lib/taglibs-standard-impl-1.2.5.jar!/META-INF/permittedTaglibs.tld
URL|true|jar:file:C:/Users/axizuser/Desktop/pleiades/workspace/DbExam7/WebContent/WEB-INF/lib/taglibs-standard-impl-1.2.5.jar!/META-INF/c-1_1.tld
URL|true|jar:file:C:/Users/axizuser/Desktop/pleiades/workspace/DbExam7/WebContent/WEB-INF/lib/taglibs-standard-impl-1.2.5.jar!/META-INF/scriptfree.tld
URL|true|jar:file:C:/Users/axizuser/Desktop/pleiades/workspace/DbExam7/WebContent/WEB-INF/lib/taglibs-standard-impl-1.2.5.jar!/META-INF/fmt.tld
URL|false|jar:file:C:/Users/axizuser/Desktop/pleiades/workspace/DbExam7/WebContent/WEB-INF/lib/taglibs-standard-impl-1.2.5.jar!/META-INF/scriptfree.tld
URL|false|jar:file:C:/Users/axizuser/Desktop/pleiades/workspace/DbExam7/WebContent/WEB-INF/lib/taglibs-standard-impl-1.2.5.jar!/META-INF/fmt.tld
URL|true|jar:file:C:/Users/axizuser/Desktop/pleiades/workspace/DbExam7/WebContent/WEB-INF/lib/taglibs-standard-impl-1.2.5.jar!/META-INF/fn.tld
URL|false|jar:file:C:/Users/axizuser/Desktop/pleiades/workspace/DbExam7/WebContent/WEB-INF/lib/taglibs-standard-impl-1.2.5.jar!/META-INF/fn.tld
URL|false|jar:file:C:/Users/axizuser/Desktop/pleiades/workspace/DbExam7/WebContent/WEB-INF/lib/taglibs-standard-impl-1.2.5.jar!/META-INF/c.tld
URL|true|jar:file:C:/Users/axizuser/Desktop/pleiades/workspace/DbExam7/WebContent/WEB-INF/lib/taglibs-standard-impl-1.2.5.jar!/META-INF/sql.tld
URL|true|jar:file:C:/Users/axizuser/Desktop/pleiades/workspace/DbExam7/WebContent/WEB-INF/lib/taglibs-standard-impl-1.2.5.jar!/META-INF/x.tld
URL|false|jar:file:C:/Users/axizuser/Desktop/pleiades/workspace/DbExam7/WebContent/WEB-INF/lib/taglibs-standard-impl-1.2.5.jar!/META-INF/x-1_0-rt.tld
URL|true|jar:file:C:/Users/axizuser/Desktop/pleiades/workspace/DbExam7/WebContent/WEB-INF/lib/taglibs-standard-impl-1.2.5.jar!/META-INF/x-1_0-rt.tld
URL|false|jar:file:C:/Users/axizuser/Desktop/pleiades/workspace/DbExam7/WebContent/WEB-INF/lib/taglibs-standard-impl-1.2.5.jar!/META-INF/sql.tld
URL|false|jar:file:C:/Users/axizuser/Desktop/pleiades/workspace/DbExam7/WebContent/WEB-INF/lib/taglibs-standard-impl-1.2.5.jar!/META-INF/x.tld
URL|true|jar:file:C:/Users/axizuser/Desktop/pleiades/workspace/DbExam7/WebContent/WEB-INF/lib/taglibs-standard-impl-1.2.5.jar!/META-INF/c.tld
JAR|false|false|C:/Users/axizuser/Desktop/pleiades/tomcat/8/lib/tomcat-i18n-ko.jar
JAR|false|false|C:/Users/axizuser/Desktop/pleiades/tomcat/8/lib/tomcat-jdbc.jar
JAR|false|false|C:/Users/axizuser/Desktop/pleiades/tomcat/8/lib/tomcat-i18n-es.jar
JAR|false|false|C:/Users/axizuser/Desktop/pleiades/tomcat/8/lib/catalina.jar
JAR|false|false|C:/Users/axizuser/Desktop/pleiades/tomcat/8/lib/jasper-el.jar
JAR|false|false|C:/Users/axizuser/Desktop/pleiades/java/8/jre/lib/jsse.jar
JAR|false|false|C:/Users/axizuser/Desktop/pleiades/tomcat/8/lib/tomcat-util-scan.jar
JAR|false|false|C:/Users/axizuser/Desktop/pleiades/tomcat/8/lib/tomcat-jni.jar
JAR|false|false|C:/Users/axizuser/Desktop/pleiades/java/8/jre/lib/charsets.jar
JAR|false|false|C:/Users/axizuser/Desktop/pleiades/java/8/jre/lib/ext/sunmscapi.jar
JAR|false|false|C:/Users/axizuser/Desktop/pleiades/tomcat/8/lib/jasper.jar
JAR|false|false|C:/Users/axizuser/Desktop/pleiades/tomcat/8/lib/catalina-ant.jar
JAR|false|false|C:/Users/axizuser/Desktop/pleiades/java/8/jre/lib/resources.jar
JAR|false|false|C:/Users/axizuser/Desktop/pleiades/java/8/jre/lib/ext/zipfs.jar
JAR|false|false|C:/Users/axizuser/Desktop/pleiades/java/8/jre/lib/jce.jar
JAR|false|false|C:/Users/axizuser/Desktop/pleiades/tomcat/8/lib/tomcat-util.jar
JAR|false|false|C:/Users/axizuser/Desktop/pleiades/java/8/jre/lib/ext/localedata.jar
JAR|false|false|C:/Users/axizuser/Desktop/pleiades/tomcat/8/lib/servlet-api.jar
JAR|false|false|C:/Users/axizuser/Desktop/pleiades/java/8/jre/lib/ext/nashorn.jar
JAR|false|false|C:/Users/axizuser/Desktop/pleiades/tomcat/8/lib/tomcat-i18n-ru.jar
JAR|false|false|C:/Users/axizuser/Desktop/pleiades/tomcat/8/lib/tomcat-websocket.jar
JAR|false|false|C:/Users/axizuser/Desktop/pleiades/java/8/jre/lib/ext/access-bridge-64.jar
JAR|false|false|C:/Users/axizuser/Desktop/pleiades/tomcat/8/lib/tomcat-coyote.jar
JAR|false|false|C:/Users/axizuser/Desktop/pleiades/tomcat/8/lib/catalina-storeconfig.jar
JAR|false|false|C:/Users/axizuser/Desktop/pleiades/java/8/jre/lib/jfr.jar
JAR|false|false|C:/Users/axizuser/Desktop/pleiades/tomcat/8/lib/tomcat-i18n-fr.jar
JAR|false|false|C:/Users/axizuser/Desktop/pleiades/java/8/jre/lib/ext/jaccess.jar
JAR|false|false|C:/Users/axizuser/Desktop/pleiades/tomcat/8/lib/el-api.jar
