127.0.0.1 - - [16/Mar/2020:11:19:06 +0900] "GET / HTTP/1.1" 404 843
0:0:0:0:0:0:0:1 - - [16/Mar/2020:11:19:32 +0900] "GET /JSP_HelloWorld/hello.jsp HTTP/1.1" 200 141
127.0.0.1 - - [16/Mar/2020:15:00:54 +0900] "GET / HTTP/1.1" 404 843
0:0:0:0:0:0:0:1 - - [16/Mar/2020:15:00:59 +0900] "GET /JavaAdExam4/appStart.jsp HTTP/1.1" 200 850
0:0:0:0:0:0:0:1 - - [16/Mar/2020:15:01:02 +0900] "POST /JavaAdExam4/StartAppServlet HTTP/1.1" 200 850
0:0:0:0:0:0:0:1 - - [16/Mar/2020:15:01:06 +0900] "POST /JavaAdExam4/StartAppServlet HTTP/1.1" 200 1022
0:0:0:0:0:0:0:1 - - [16/Mar/2020:15:01:13 +0900] "POST /JavaAdExam4/StartAppServlet HTTP/1.1" 200 1034
0:0:0:0:0:0:0:1 - - [16/Mar/2020:15:01:20 +0900] "POST /JavaAdExam4/StartAppServlet HTTP/1.1" 200 1005
0:0:0:0:0:0:0:1 - - [16/Mar/2020:15:01:23 +0900] "POST /JavaAdExam4/StartAppServlet HTTP/1.1" 200 974
0:0:0:0:0:0:0:1 - - [16/Mar/2020:15:01:28 +0900] "POST /JavaAdExam4/StartAppServlet HTTP/1.1" 200 1051
