127.0.0.1 - - [30/Mar/2020:12:41:06 +0900] "GET / HTTP/1.1" 404 843
0:0:0:0:0:0:0:1 - - [30/Mar/2020:12:41:08 +0900] "GET /DbExam7/top.jsp HTTP/1.1" 200 398
0:0:0:0:0:0:0:1 - - [30/Mar/2020:12:41:13 +0900] "POST /DbExam7/DMLServlet HTTP/1.1" 200 844
0:0:0:0:0:0:0:1 - - [30/Mar/2020:12:41:22 +0900] "POST /DbExam7/DMLServlet HTTP/1.1" 500 1140
127.0.0.1 - - [30/Mar/2020:12:42:21 +0900] "GET / HTTP/1.1" 404 843
0:0:0:0:0:0:0:1 - - [30/Mar/2020:12:42:23 +0900] "GET /DbExam7/top.jsp HTTP/1.1" 200 398
0:0:0:0:0:0:0:1 - - [30/Mar/2020:12:42:27 +0900] "POST /DbExam7/DMLServlet HTTP/1.1" 200 844
0:0:0:0:0:0:0:1 - - [30/Mar/2020:12:42:35 +0900] "POST /DbExam7/DMLServlet HTTP/1.1" 200 261
127.0.0.1 - - [30/Mar/2020:12:43:33 +0900] "GET / HTTP/1.1" 404 843
0:0:0:0:0:0:0:1 - - [30/Mar/2020:12:43:34 +0900] "GET /DbExam7/top.jsp HTTP/1.1" 200 398
0:0:0:0:0:0:0:1 - - [30/Mar/2020:12:43:40 +0900] "POST /DbExam7/DMLServlet HTTP/1.1" 200 261
127.0.0.1 - - [30/Mar/2020:12:46:21 +0900] "GET / HTTP/1.1" 404 843
0:0:0:0:0:0:0:1 - - [30/Mar/2020:12:46:22 +0900] "GET /DbExam7/top.jsp HTTP/1.1" 200 398
127.0.0.1 - - [30/Mar/2020:12:53:49 +0900] "GET / HTTP/1.1" 404 843
0:0:0:0:0:0:0:1 - - [30/Mar/2020:12:53:50 +0900] "GET /DbExam7/top.jsp HTTP/1.1" 200 398
0:0:0:0:0:0:0:1 - - [30/Mar/2020:12:53:55 +0900] "POST /DbExam7/DMLServlet HTTP/1.1" 200 261
127.0.0.1 - - [30/Mar/2020:12:56:35 +0900] "GET / HTTP/1.1" 404 843
0:0:0:0:0:0:0:1 - - [30/Mar/2020:12:56:35 +0900] "GET /DbExam7/top.jsp HTTP/1.1" 200 398
0:0:0:0:0:0:0:1 - - [30/Mar/2020:12:56:42 +0900] "POST /DbExam7/DMLServlet HTTP/1.1" 200 261
0:0:0:0:0:0:0:1 - - [30/Mar/2020:12:56:51 +0900] "POST /DbExam7/DMLServlet HTTP/1.1" 200 844
127.0.0.1 - - [30/Mar/2020:12:57:13 +0900] "GET / HTTP/1.1" 404 843
0:0:0:0:0:0:0:1 - - [30/Mar/2020:12:57:14 +0900] "GET /DbExam7/top.jsp HTTP/1.1" 200 398
127.0.0.1 - - [30/Mar/2020:13:06:05 +0900] "GET / HTTP/1.1" 404 843
0:0:0:0:0:0:0:1 - - [30/Mar/2020:13:06:05 +0900] "GET /DbExam7/top.jsp HTTP/1.1" 200 398
0:0:0:0:0:0:0:1 - - [30/Mar/2020:13:06:11 +0900] "POST /DbExam7/DMLServlet HTTP/1.1" 200 419
127.0.0.1 - - [30/Mar/2020:13:27:51 +0900] "GET / HTTP/1.1" 404 843
0:0:0:0:0:0:0:1 - - [30/Mar/2020:13:27:52 +0900] "GET /DbExam7/top.jsp HTTP/1.1" 200 398
0:0:0:0:0:0:0:1 - - [30/Mar/2020:13:28:00 +0900] "POST /DbExam7/DMLServlet HTTP/1.1" 500 1449
127.0.0.1 - - [30/Mar/2020:13:29:49 +0900] "GET / HTTP/1.1" 404 843
0:0:0:0:0:0:0:1 - - [30/Mar/2020:13:29:50 +0900] "GET /DbExam7/top.jsp HTTP/1.1" 200 398
0:0:0:0:0:0:0:1 - - [30/Mar/2020:13:29:56 +0900] "POST /DbExam7/DMLServlet HTTP/1.1" 200 261
127.0.0.1 - - [30/Mar/2020:13:31:09 +0900] "GET / HTTP/1.1" 404 843
0:0:0:0:0:0:0:1 - - [30/Mar/2020:13:31:09 +0900] "GET /DbExam7/top.jsp HTTP/1.1" 200 398
0:0:0:0:0:0:0:1 - - [30/Mar/2020:13:31:11 +0900] "POST /DbExam7/DMLServlet HTTP/1.1" 200 844
0:0:0:0:0:0:0:1 - - [30/Mar/2020:13:31:17 +0900] "POST /DbExam7/DMLServlet HTTP/1.1" 200 419
127.0.0.1 - - [30/Mar/2020:13:31:56 +0900] "GET / HTTP/1.1" 404 843
0:0:0:0:0:0:0:1 - - [30/Mar/2020:13:31:57 +0900] "GET /DbExam7/top.jsp HTTP/1.1" 200 398
0:0:0:0:0:0:0:1 - - [30/Mar/2020:13:32:02 +0900] "POST /DbExam7/DMLServlet HTTP/1.1" 200 419
0:0:0:0:0:0:0:1 - - [30/Mar/2020:13:32:08 +0900] "POST /DbExam7/DMLServlet HTTP/1.1" 200 429
0:0:0:0:0:0:0:1 - - [30/Mar/2020:13:32:16 +0900] "POST /DbExam7/DMLServlet HTTP/1.1" 200 346
127.0.0.1 - - [30/Mar/2020:13:34:49 +0900] "GET / HTTP/1.1" 404 843
0:0:0:0:0:0:0:1 - - [30/Mar/2020:13:34:49 +0900] "GET /DbExam7/top.jsp HTTP/1.1" 200 398
0:0:0:0:0:0:0:1 - - [30/Mar/2020:13:34:54 +0900] "POST /DbExam7/DMLServlet HTTP/1.1" 200 419
0:0:0:0:0:0:0:1 - - [30/Mar/2020:13:35:01 +0900] "POST /DbExam7/DMLServlet HTTP/1.1" 200 504
0:0:0:0:0:0:0:1 - - [30/Mar/2020:15:25:29 +0900] "GET /DbExam7/top.jsp HTTP/1.1" 200 398
127.0.0.1 - - [30/Mar/2020:15:26:44 +0900] "GET / HTTP/1.1" 404 843
0:0:0:0:0:0:0:1 - - [30/Mar/2020:15:26:45 +0900] "GET /DbExam7/top.jsp HTTP/1.1" 200 398
0:0:0:0:0:0:0:1 - - [30/Mar/2020:15:26:49 +0900] "POST /DbExam7/DMLServlet HTTP/1.1" 200 844
0:0:0:0:0:0:0:1 - - [30/Mar/2020:15:26:58 +0900] "POST /DbExam7/DMLServlet HTTP/1.1" 200 261
127.0.0.1 - - [30/Mar/2020:15:27:50 +0900] "GET / HTTP/1.1" 404 843
0:0:0:0:0:0:0:1 - - [30/Mar/2020:15:27:51 +0900] "GET /DbExam7/top.jsp HTTP/1.1" 200 398
0:0:0:0:0:0:0:1 - - [30/Mar/2020:15:27:56 +0900] "POST /DbExam7/DMLServlet HTTP/1.1" 200 419
0:0:0:0:0:0:0:1 - - [30/Mar/2020:15:28:03 +0900] "POST /DbExam7/DMLServlet HTTP/1.1" 200 429
127.0.0.1 - - [30/Mar/2020:15:31:05 +0900] "GET / HTTP/1.1" 404 843
0:0:0:0:0:0:0:1 - - [30/Mar/2020:15:31:06 +0900] "GET /DbExam7/top.jsp HTTP/1.1" 200 398
0:0:0:0:0:0:0:1 - - [30/Mar/2020:15:31:11 +0900] "POST /DbExam7/DMLServlet HTTP/1.1" 200 844
0:0:0:0:0:0:0:1 - - [30/Mar/2020:15:31:26 +0900] "POST /DbExam7/DMLServlet HTTP/1.1" 200 433
127.0.0.1 - - [30/Mar/2020:15:39:39 +0900] "GET / HTTP/1.1" 404 843
0:0:0:0:0:0:0:1 - - [30/Mar/2020:15:39:40 +0900] "GET /DbExam7/top.jsp HTTP/1.1" 200 398
0:0:0:0:0:0:0:1 - - [30/Mar/2020:15:39:43 +0900] "POST /DbExam7/DMLServlet HTTP/1.1" 200 845
0:0:0:0:0:0:0:1 - - [30/Mar/2020:15:39:57 +0900] "POST /DbExam7/DMLServlet HTTP/1.1" 200 433
0:0:0:0:0:0:0:1 - - [30/Mar/2020:15:40:03 +0900] "POST /DbExam7/DMLServlet HTTP/1.1" 200 347
127.0.0.1 - - [30/Mar/2020:15:41:56 +0900] "GET / HTTP/1.1" 404 843
0:0:0:0:0:0:0:1 - - [30/Mar/2020:15:41:57 +0900] "GET /DbExam7/top.jsp HTTP/1.1" 200 398
0:0:0:0:0:0:0:1 - - [30/Mar/2020:15:41:59 +0900] "POST /DbExam7/DMLServlet HTTP/1.1" 200 261
127.0.0.1 - - [30/Mar/2020:15:50:15 +0900] "GET / HTTP/1.1" 404 843
0:0:0:0:0:0:0:1 - - [30/Mar/2020:15:50:16 +0900] "GET /DbExam7/top.jsp HTTP/1.1" 200 398
0:0:0:0:0:0:0:1 - - [30/Mar/2020:15:50:20 +0900] "POST /DbExam7/DMLServlet HTTP/1.1" 500 1449
127.0.0.1 - - [30/Mar/2020:15:51:50 +0900] "GET / HTTP/1.1" 404 843
0:0:0:0:0:0:0:1 - - [30/Mar/2020:15:51:51 +0900] "GET /DbExam7/top.jsp HTTP/1.1" 200 398
0:0:0:0:0:0:0:1 - - [30/Mar/2020:15:51:53 +0900] "POST /DbExam7/DMLServlet HTTP/1.1" 500 1449
127.0.0.1 - - [30/Mar/2020:15:52:56 +0900] "GET / HTTP/1.1" 404 843
0:0:0:0:0:0:0:1 - - [30/Mar/2020:15:52:57 +0900] "GET /DbExam7/top.jsp HTTP/1.1" 200 398
0:0:0:0:0:0:0:1 - - [30/Mar/2020:15:52:59 +0900] "POST /DbExam7/DMLServlet HTTP/1.1" 200 261
127.0.0.1 - - [30/Mar/2020:15:53:33 +0900] "GET / HTTP/1.1" 404 843
0:0:0:0:0:0:0:1 - - [30/Mar/2020:15:53:34 +0900] "GET /DbExam7/top.jsp HTTP/1.1" 200 398
0:0:0:0:0:0:0:1 - - [30/Mar/2020:15:53:36 +0900] "POST /DbExam7/DMLServlet HTTP/1.1" 200 845
0:0:0:0:0:0:0:1 - - [30/Mar/2020:15:56:15 +0900] "GET /DbExam7/top.jsp HTTP/1.1" 200 396
0:0:0:0:0:0:0:1 - - [30/Mar/2020:15:56:19 +0900] "POST /DbExam7/DMLServlet HTTP/1.1" 200 900
0:0:0:0:0:0:0:1 - - [30/Mar/2020:15:56:23 +0900] "GET /DbExam7/input.jsp HTTP/1.1" 404 864
0:0:0:0:0:0:0:1 - - [30/Mar/2020:15:56:49 +0900] "GET /DbExam7/top.jsp HTTP/1.1" 200 396
0:0:0:0:0:0:0:1 - - [30/Mar/2020:15:56:51 +0900] "POST /DbExam7/DMLServlet HTTP/1.1" 200 898
0:0:0:0:0:0:0:1 - - [30/Mar/2020:15:56:52 +0900] "GET /DbExam7/top.jsp HTTP/1.1" 200 396
0:0:0:0:0:0:0:1 - - [30/Mar/2020:15:56:58 +0900] "POST /DbExam7/DMLServlet HTTP/1.1" 200 572
0:0:0:0:0:0:0:1 - - [30/Mar/2020:15:57:01 +0900] "GET /DbExam7/top.jsp HTTP/1.1" 200 396
0:0:0:0:0:0:0:1 - - [30/Mar/2020:15:57:11 +0900] "POST /DbExam7/DMLServlet HTTP/1.1" 200 572
0:0:0:0:0:0:0:1 - - [30/Mar/2020:15:57:14 +0900] "GET /DbExam7/top.jsp HTTP/1.1" 200 396
0:0:0:0:0:0:0:1 - - [30/Mar/2020:15:57:24 +0900] "POST /DbExam7/DMLServlet HTTP/1.1" 200 572
127.0.0.1 - - [30/Mar/2020:15:58:18 +0900] "GET / HTTP/1.1" 404 843
0:0:0:0:0:0:0:1 - - [30/Mar/2020:15:58:18 +0900] "GET /DbExam7/top.jsp HTTP/1.1" 200 396
0:0:0:0:0:0:0:1 - - [30/Mar/2020:15:58:26 +0900] "POST /DbExam7/DMLServlet HTTP/1.1" 500 1455
0:0:0:0:0:0:0:1 - - [30/Mar/2020:15:58:32 +0900] "POST /DbExam7/DMLServlet HTTP/1.1" 200 486
0:0:0:0:0:0:0:1 - - [30/Mar/2020:15:58:34 +0900] "GET /DbExam7/top.jsp HTTP/1.1" 200 396
0:0:0:0:0:0:0:1 - - [30/Mar/2020:15:58:42 +0900] "POST /DbExam7/DMLServlet HTTP/1.1" 200 400
0:0:0:0:0:0:0:1 - - [30/Mar/2020:15:58:44 +0900] "GET /DbExam7/top.jsp HTTP/1.1" 200 396
127.0.0.1 - - [30/Mar/2020:16:16:49 +0900] "GET / HTTP/1.1" 404 843
0:0:0:0:0:0:0:1 - - [30/Mar/2020:16:16:53 +0900] "GET /DbExam7/top.jsp HTTP/1.1" 200 437
0:0:0:0:0:0:0:1 - - [30/Mar/2020:16:16:57 +0900] "POST /DbExam7/DMLServlet HTTP/1.1" 200 -
0:0:0:0:0:0:0:1 - - [30/Mar/2020:16:18:16 +0900] "GET /DbExam7/top.jsp HTTP/1.1" 200 427
0:0:0:0:0:0:0:1 - - [30/Mar/2020:16:18:19 +0900] "POST /DbExam7/DMLServlet HTTP/1.1" 200 -
127.0.0.1 - - [30/Mar/2020:16:22:30 +0900] "GET / HTTP/1.1" 404 843
0:0:0:0:0:0:0:1 - - [30/Mar/2020:16:22:33 +0900] "GET /DbExam7/top.jsp HTTP/1.1" 200 410
0:0:0:0:0:0:0:1 - - [30/Mar/2020:16:22:37 +0900] "POST /DbExam7/DMLServlet HTTP/1.1" 200 898
0:0:0:0:0:0:0:1 - - [30/Mar/2020:16:22:39 +0900] "GET /DbExam7/top.jsp HTTP/1.1" 200 410
0:0:0:0:0:0:0:1 - - [30/Mar/2020:16:22:57 +0900] "POST /DbExam7/DMLServlet HTTP/1.1" 200 314
0:0:0:0:0:0:0:1 - - [30/Mar/2020:16:22:59 +0900] "GET /DbExam7/top.jsp HTTP/1.1" 200 410
0:0:0:0:0:0:0:1 - - [30/Mar/2020:16:23:10 +0900] "POST /DbExam7/DMLServlet HTTP/1.1" 200 314
0:0:0:0:0:0:0:1 - - [30/Mar/2020:16:23:12 +0900] "GET /DbExam7/top.jsp HTTP/1.1" 200 410
0:0:0:0:0:0:0:1 - - [30/Mar/2020:16:24:07 +0900] "POST /DbExam7/DMLServlet HTTP/1.1" 200 314
0:0:0:0:0:0:0:1 - - [30/Mar/2020:16:24:10 +0900] "GET /DbExam7/top.jsp HTTP/1.1" 200 410
0:0:0:0:0:0:0:1 - - [30/Mar/2020:16:24:11 +0900] "POST /DbExam7/DMLServlet HTTP/1.1" 200 898
0:0:0:0:0:0:0:1 - - [30/Mar/2020:16:24:13 +0900] "GET /DbExam7/top.jsp HTTP/1.1" 200 410
0:0:0:0:0:0:0:1 - - [30/Mar/2020:16:24:17 +0900] "POST /DbExam7/DMLServlet HTTP/1.1" 200 314
0:0:0:0:0:0:0:1 - - [30/Mar/2020:16:24:20 +0900] "GET /DbExam7/top.jsp HTTP/1.1" 200 410
0:0:0:0:0:0:0:1 - - [30/Mar/2020:16:24:45 +0900] "GET /DbExam7/top.jsp HTTP/1.1" 200 410
0:0:0:0:0:0:0:1 - - [30/Mar/2020:16:24:57 +0900] "POST /DbExam7/DMLServlet HTTP/1.1" 200 314
0:0:0:0:0:0:0:1 - - [30/Mar/2020:16:24:58 +0900] "POST /DbExam7/DMLServlet HTTP/1.1" 200 314
0:0:0:0:0:0:0:1 - - [30/Mar/2020:16:25:00 +0900] "GET /DbExam7/top.jsp HTTP/1.1" 200 410
127.0.0.1 - - [30/Mar/2020:16:25:26 +0900] "GET / HTTP/1.1" 404 843
0:0:0:0:0:0:0:1 - - [30/Mar/2020:16:25:27 +0900] "GET /DbExam7/top.jsp HTTP/1.1" 200 410
127.0.0.1 - - [30/Mar/2020:16:31:20 +0900] "GET / HTTP/1.1" 404 843
0:0:0:0:0:0:0:1 - - [30/Mar/2020:16:31:21 +0900] "GET /DbExam7/top.jsp HTTP/1.1" 200 410
0:0:0:0:0:0:0:1 - - [30/Mar/2020:16:31:28 +0900] "POST /DbExam7/DMLServlet HTTP/1.1" 200 572
0:0:0:0:0:0:0:1 - - [30/Mar/2020:16:31:29 +0900] "GET /DbExam7/top.jsp HTTP/1.1" 200 410
0:0:0:0:0:0:0:1 - - [30/Mar/2020:16:31:36 +0900] "POST /DbExam7/DMLServlet HTTP/1.1" 200 486
0:0:0:0:0:0:0:1 - - [30/Mar/2020:16:31:37 +0900] "GET /DbExam7/top.jsp HTTP/1.1" 200 410
0:0:0:0:0:0:0:1 - - [30/Mar/2020:16:31:45 +0900] "POST /DbExam7/DMLServlet HTTP/1.1" 200 400
0:0:0:0:0:0:0:1 - - [30/Mar/2020:16:31:47 +0900] "GET /DbExam7/top.jsp HTTP/1.1" 200 410
127.0.0.1 - - [30/Mar/2020:16:48:42 +0900] "GET / HTTP/1.1" 404 843
0:0:0:0:0:0:0:1 - - [30/Mar/2020:16:48:45 +0900] "GET /DbExam7/top.jsp HTTP/1.1" 200 476
0:0:0:0:0:0:0:1 - - [30/Mar/2020:16:48:48 +0900] "POST /DbExam7/DMLServlet HTTP/1.1" 500 898
0:0:0:0:0:0:0:1 - - [30/Mar/2020:16:48:52 +0900] "GET /DbExam7/top.jsp HTTP/1.1" 200 476
0:0:0:0:0:0:0:1 - - [30/Mar/2020:16:48:53 +0900] "POST /DbExam7/DMLServlet HTTP/1.1" 500 898
0:0:0:0:0:0:0:1 - - [30/Mar/2020:16:48:55 +0900] "GET /DbExam7/top.jsp HTTP/1.1" 200 476
127.0.0.1 - - [30/Mar/2020:16:49:35 +0900] "GET / HTTP/1.1" 404 843
0:0:0:0:0:0:0:1 - - [30/Mar/2020:16:49:36 +0900] "GET /DbExam7/top.jsp HTTP/1.1" 200 476
0:0:0:0:0:0:0:1 - - [30/Mar/2020:16:49:37 +0900] "POST /DbExam7/DMLServlet HTTP/1.1" 200 476
0:0:0:0:0:0:0:1 - - [30/Mar/2020:16:49:41 +0900] "POST /DbExam7/DMLServlet HTTP/1.1" 200 476
0:0:0:0:0:0:0:1 - - [30/Mar/2020:16:49:42 +0900] "POST /DbExam7/DMLServlet HTTP/1.1" 200 476
0:0:0:0:0:0:0:1 - - [30/Mar/2020:16:49:47 +0900] "POST /DbExam7/DMLServlet HTTP/1.1" 200 476
0:0:0:0:0:0:0:1 - - [30/Mar/2020:16:49:47 +0900] "POST /DbExam7/DMLServlet HTTP/1.1" 200 476
0:0:0:0:0:0:0:1 - - [30/Mar/2020:16:49:48 +0900] "POST /DbExam7/DMLServlet HTTP/1.1" 200 476
0:0:0:0:0:0:0:1 - - [30/Mar/2020:16:49:49 +0900] "POST /DbExam7/DMLServlet HTTP/1.1" 200 476
127.0.0.1 - - [30/Mar/2020:16:52:44 +0900] "GET / HTTP/1.1" 404 843
0:0:0:0:0:0:0:1 - - [30/Mar/2020:16:52:45 +0900] "GET /DbExam7/top.jsp HTTP/1.1" 200 476
0:0:0:0:0:0:0:1 - - [30/Mar/2020:16:52:49 +0900] "POST /DbExam7/DMLServlet HTTP/1.1" 200 476
0:0:0:0:0:0:0:1 - - [30/Mar/2020:16:52:52 +0900] "POST /DbExam7/DMLServlet HTTP/1.1" 200 476
0:0:0:0:0:0:0:1 - - [30/Mar/2020:16:52:54 +0900] "POST /DbExam7/DMLServlet HTTP/1.1" 200 476
0:0:0:0:0:0:0:1 - - [30/Mar/2020:16:52:56 +0900] "POST /DbExam7/DMLServlet HTTP/1.1" 200 476
0:0:0:0:0:0:0:1 - - [30/Mar/2020:16:53:00 +0900] "POST /DbExam7/DMLServlet HTTP/1.1" 200 476
0:0:0:0:0:0:0:1 - - [30/Mar/2020:16:53:01 +0900] "POST /DbExam7/DMLServlet HTTP/1.1" 200 476
0:0:0:0:0:0:0:1 - - [30/Mar/2020:16:53:02 +0900] "POST /DbExam7/DMLServlet HTTP/1.1" 200 476
0:0:0:0:0:0:0:1 - - [30/Mar/2020:16:54:16 +0900] "GET /DbExam7/top.jsp HTTP/1.1" 200 425
0:0:0:0:0:0:0:1 - - [30/Mar/2020:16:54:18 +0900] "POST /DbExam7/DMLServlet HTTP/1.1" 200 425
0:0:0:0:0:0:0:1 - - [30/Mar/2020:16:54:19 +0900] "POST /DbExam7/DMLServlet HTTP/1.1" 200 425
127.0.0.1 - - [30/Mar/2020:16:55:54 +0900] "GET / HTTP/1.1" 404 843
0:0:0:0:0:0:0:1 - - [30/Mar/2020:16:55:56 +0900] "GET /DbExam7/top.jsp HTTP/1.1" 200 476
0:0:0:0:0:0:0:1 - - [30/Mar/2020:16:55:58 +0900] "POST /DbExam7/DMLServlet HTTP/1.1" 200 503
0:0:0:0:0:0:0:1 - - [30/Mar/2020:16:56:00 +0900] "POST /DbExam7/DMLServlet HTTP/1.1" 500 898
127.0.0.1 - - [30/Mar/2020:16:58:03 +0900] "GET / HTTP/1.1" 404 843
0:0:0:0:0:0:0:1 - - [30/Mar/2020:16:58:04 +0900] "GET /DbExam7/top.jsp HTTP/1.1" 200 476
0:0:0:0:0:0:0:1 - - [30/Mar/2020:16:58:06 +0900] "POST /DbExam7/DMLServlet HTTP/1.1" 200 523
0:0:0:0:0:0:0:1 - - [30/Mar/2020:16:58:07 +0900] "POST /DbExam7/DMLServlet HTTP/1.1" 500 898
0:0:0:0:0:0:0:1 - - [30/Mar/2020:16:59:03 +0900] "GET /DbExam7/top.jsp HTTP/1.1" 200 476
0:0:0:0:0:0:0:1 - - [30/Mar/2020:16:59:05 +0900] "POST /DbExam7/DMLServlet HTTP/1.1" 200 523
0:0:0:0:0:0:0:1 - - [30/Mar/2020:16:59:06 +0900] "POST /DbExam7/DMLServlet HTTP/1.1" 500 898
0:0:0:0:0:0:0:1 - - [30/Mar/2020:16:59:12 +0900] "GET /DbExam7/top.jsp HTTP/1.1" 200 476
0:0:0:0:0:0:0:1 - - [30/Mar/2020:16:59:27 +0900] "POST /DbExam7/DMLServlet HTTP/1.1" 500 572
127.0.0.1 - - [30/Mar/2020:17:01:48 +0900] "GET / HTTP/1.1" 404 843
0:0:0:0:0:0:0:1 - - [30/Mar/2020:17:01:49 +0900] "GET /DbExam7/top.jsp HTTP/1.1" 200 476
0:0:0:0:0:0:0:1 - - [30/Mar/2020:17:01:51 +0900] "POST /DbExam7/DMLServlet HTTP/1.1" 200 523
0:0:0:0:0:0:0:1 - - [30/Mar/2020:17:01:52 +0900] "POST /DbExam7/DMLServlet HTTP/1.1" 500 898
127.0.0.1 - - [30/Mar/2020:17:08:03 +0900] "GET / HTTP/1.1" 404 843
0:0:0:0:0:0:0:1 - - [30/Mar/2020:17:08:04 +0900] "GET /DbExam7/top.jsp HTTP/1.1" 200 476
0:0:0:0:0:0:0:1 - - [30/Mar/2020:17:08:09 +0900] "POST /DbExam7/DMLServlet HTTP/1.1" 200 898
0:0:0:0:0:0:0:1 - - [30/Mar/2020:17:08:10 +0900] "GET /DbExam7/top.jsp HTTP/1.1" 200 476
0:0:0:0:0:0:0:1 - - [30/Mar/2020:17:08:11 +0900] "POST /DbExam7/DMLServlet HTTP/1.1" 200 523
0:0:0:0:0:0:0:1 - - [30/Mar/2020:17:08:12 +0900] "POST /DbExam7/DMLServlet HTTP/1.1" 200 898
0:0:0:0:0:0:0:1 - - [30/Mar/2020:17:08:13 +0900] "GET /DbExam7/top.jsp HTTP/1.1" 200 476
127.0.0.1 - - [30/Mar/2020:17:23:05 +0900] "GET / HTTP/1.1" 404 843
0:0:0:0:0:0:0:1 - - [30/Mar/2020:17:23:06 +0900] "GET /DbExam7/top.jsp HTTP/1.1" 200 476
0:0:0:0:0:0:0:1 - - [30/Mar/2020:17:23:17 +0900] "POST /DbExam7/DMLServlet HTTP/1.1" 200 476
0:0:0:0:0:0:0:1 - - [30/Mar/2020:17:23:22 +0900] "POST /DbExam7/DMLServlet HTTP/1.1" 200 523
0:0:0:0:0:0:0:1 - - [30/Mar/2020:17:25:06 +0900] "POST /DbExam7/DMLServlet HTTP/1.1" 200 476
0:0:0:0:0:0:0:1 - - [30/Mar/2020:17:25:08 +0900] "POST /DbExam7/DMLServlet HTTP/1.1" 200 523
127.0.0.1 - - [30/Mar/2020:17:25:33 +0900] "GET / HTTP/1.1" 404 843
0:0:0:0:0:0:0:1 - - [30/Mar/2020:17:25:34 +0900] "GET /DbExam7/top.jsp HTTP/1.1" 200 476
0:0:0:0:0:0:0:1 - - [30/Mar/2020:17:25:39 +0900] "POST /DbExam7/DMLServlet HTTP/1.1" 200 476
127.0.0.1 - - [30/Mar/2020:17:26:31 +0900] "GET / HTTP/1.1" 404 843
0:0:0:0:0:0:0:1 - - [30/Mar/2020:17:26:32 +0900] "GET /DbExam7/top.jsp HTTP/1.1" 200 476
0:0:0:0:0:0:0:1 - - [30/Mar/2020:17:26:38 +0900] "POST /DbExam7/DMLServlet HTTP/1.1" 500 476
127.0.0.1 - - [30/Mar/2020:17:32:52 +0900] "GET / HTTP/1.1" 404 843
0:0:0:0:0:0:0:1 - - [30/Mar/2020:17:32:54 +0900] "GET /DbExam7/top.jsp HTTP/1.1" 200 476
0:0:0:0:0:0:0:1 - - [30/Mar/2020:17:32:59 +0900] "POST /DbExam7/DMLServlet HTTP/1.1" 200 476
127.0.0.1 - - [30/Mar/2020:17:33:32 +0900] "GET / HTTP/1.1" 404 843
0:0:0:0:0:0:0:1 - - [30/Mar/2020:17:33:32 +0900] "GET /DbExam7/top.jsp HTTP/1.1" 200 476
0:0:0:0:0:0:0:1 - - [30/Mar/2020:17:33:37 +0900] "POST /DbExam7/DMLServlet HTTP/1.1" 500 476
127.0.0.1 - - [30/Mar/2020:17:35:20 +0900] "GET / HTTP/1.1" 404 843
0:0:0:0:0:0:0:1 - - [30/Mar/2020:17:35:20 +0900] "GET /DbExam7/top.jsp HTTP/1.1" 200 476
0:0:0:0:0:0:0:1 - - [30/Mar/2020:17:35:27 +0900] "POST /DbExam7/DMLServlet HTTP/1.1" 500 5113
127.0.0.1 - - [30/Mar/2020:17:39:52 +0900] "GET / HTTP/1.1" 404 843
0:0:0:0:0:0:0:1 - - [30/Mar/2020:17:39:52 +0900] "GET /DbExam7/top.jsp HTTP/1.1" 200 476
0:0:0:0:0:0:0:1 - - [30/Mar/2020:17:40:05 +0900] "POST /DbExam7/DMLServlet HTTP/1.1" 500 228
127.0.0.1 - - [30/Mar/2020:17:42:30 +0900] "GET / HTTP/1.1" 404 843
0:0:0:0:0:0:0:1 - - [30/Mar/2020:17:42:31 +0900] "GET /DbExam7/top.jsp HTTP/1.1" 200 476
0:0:0:0:0:0:0:1 - - [30/Mar/2020:17:42:32 +0900] "POST /DbExam7/DMLServlet HTTP/1.1" 200 523
0:0:0:0:0:0:0:1 - - [30/Mar/2020:17:42:36 +0900] "POST /DbExam7/DMLServlet HTTP/1.1" 500 476
127.0.0.1 - - [30/Mar/2020:17:44:36 +0900] "GET / HTTP/1.1" 404 843
0:0:0:0:0:0:0:1 - - [30/Mar/2020:17:44:36 +0900] "GET /DbExam7/top.jsp HTTP/1.1" 200 476
0:0:0:0:0:0:0:1 - - [30/Mar/2020:17:44:39 +0900] "POST /DbExam7/DMLServlet HTTP/1.1" 200 523
0:0:0:0:0:0:0:1 - - [30/Mar/2020:17:44:42 +0900] "POST /DbExam7/DMLServlet HTTP/1.1" 200 228
0:0:0:0:0:0:0:1 - - [30/Mar/2020:17:44:44 +0900] "GET /DbExam7/top.jsp HTTP/1.1" 200 476
127.0.0.1 - - [30/Mar/2020:17:55:13 +0900] "GET / HTTP/1.1" 404 843
0:0:0:0:0:0:0:1 - - [30/Mar/2020:17:55:14 +0900] "GET /DbExam7/top.jsp HTTP/1.1" 200 476
0:0:0:0:0:0:0:1 - - [30/Mar/2020:17:55:17 +0900] "POST /DbExam7/DMLServlet HTTP/1.1" 200 523
0:0:0:0:0:0:0:1 - - [30/Mar/2020:17:55:30 +0900] "POST /DbExam7/DMLServlet HTTP/1.1" 200 199
0:0:0:0:0:0:0:1 - - [30/Mar/2020:17:55:31 +0900] "GET /DbExam7/top.jsp HTTP/1.1" 200 476
0:0:0:0:0:0:0:1 - - [30/Mar/2020:17:55:32 +0900] "POST /DbExam7/DMLServlet HTTP/1.1" 200 983
0:0:0:0:0:0:0:1 - - [30/Mar/2020:17:55:34 +0900] "GET /DbExam7/top.jsp HTTP/1.1" 200 476
0:0:0:0:0:0:0:1 - - [30/Mar/2020:17:55:51 +0900] "POST /DbExam7/DMLServlet HTTP/1.1" 200 199
0:0:0:0:0:0:0:1 - - [30/Mar/2020:17:55:52 +0900] "GET /DbExam7/top.jsp HTTP/1.1" 200 476
0:0:0:0:0:0:0:1 - - [30/Mar/2020:17:55:58 +0900] "POST /DbExam7/DMLServlet HTTP/1.1" 200 406
0:0:0:0:0:0:0:1 - - [30/Mar/2020:17:56:01 +0900] "GET /DbExam7/top.jsp HTTP/1.1" 200 476
0:0:0:0:0:0:0:1 - - [30/Mar/2020:17:56:13 +0900] "POST /DbExam7/DMLServlet HTTP/1.1" 200 496
0:0:0:0:0:0:0:1 - - [30/Mar/2020:17:56:16 +0900] "POST /DbExam7/DMLServlet HTTP/1.1" 200 1075
0:0:0:0:0:0:0:1 - - [30/Mar/2020:17:56:18 +0900] "GET /DbExam7/top.jsp HTTP/1.1" 200 476
127.0.0.1 - - [30/Mar/2020:18:08:33 +0900] "GET / HTTP/1.1" 404 843
0:0:0:0:0:0:0:1 - - [30/Mar/2020:18:08:34 +0900] "GET /DbExam7/top.jsp HTTP/1.1" 200 476
0:0:0:0:0:0:0:1 - - [30/Mar/2020:18:08:38 +0900] "POST /DbExam7/DMLServlet HTTP/1.1" 200 1075
0:0:0:0:0:0:0:1 - - [30/Mar/2020:18:08:40 +0900] "GET /DbExam7/top.jsp HTTP/1.1" 200 476
0:0:0:0:0:0:0:1 - - [30/Mar/2020:18:08:50 +0900] "POST /DbExam7/DMLServlet HTTP/1.1" 200 406
0:0:0:0:0:0:0:1 - - [30/Mar/2020:18:08:52 +0900] "GET /DbExam7/top.jsp HTTP/1.1" 200 476
0:0:0:0:0:0:0:1 - - [30/Mar/2020:18:08:56 +0900] "POST /DbExam7/DMLServlet HTTP/1.1" 200 406
0:0:0:0:0:0:0:1 - - [30/Mar/2020:18:08:57 +0900] "GET /DbExam7/top.jsp HTTP/1.1" 200 476
0:0:0:0:0:0:0:1 - - [30/Mar/2020:18:09:05 +0900] "POST /DbExam7/DMLServlet HTTP/1.1" 500 476
127.0.0.1 - - [30/Mar/2020:18:10:36 +0900] "GET / HTTP/1.1" 404 843
0:0:0:0:0:0:0:1 - - [30/Mar/2020:18:10:36 +0900] "GET /DbExam7/top.jsp HTTP/1.1" 200 476
0:0:0:0:0:0:0:1 - - [30/Mar/2020:18:10:38 +0900] "POST /DbExam7/DMLServlet HTTP/1.1" 200 523
0:0:0:0:0:0:0:1 - - [30/Mar/2020:18:10:39 +0900] "POST /DbExam7/DMLServlet HTTP/1.1" 200 1075
0:0:0:0:0:0:0:1 - - [30/Mar/2020:18:10:41 +0900] "GET /DbExam7/top.jsp HTTP/1.1" 200 476
0:0:0:0:0:0:0:1 - - [30/Mar/2020:18:10:49 +0900] "POST /DbExam7/DMLServlet HTTP/1.1" 200 399
0:0:0:0:0:0:0:1 - - [30/Mar/2020:18:10:51 +0900] "GET /DbExam7/top.jsp HTTP/1.1" 200 476
0:0:0:0:0:0:0:1 - - [30/Mar/2020:18:10:55 +0900] "POST /DbExam7/DMLServlet HTTP/1.1" 200 482
0:0:0:0:0:0:0:1 - - [30/Mar/2020:18:10:56 +0900] "GET /DbExam7/top.jsp HTTP/1.1" 200 476
0:0:0:0:0:0:0:1 - - [30/Mar/2020:18:11:04 +0900] "POST /DbExam7/DMLServlet HTTP/1.1" 500 476
127.0.0.1 - - [30/Mar/2020:18:18:33 +0900] "GET / HTTP/1.1" 404 843
0:0:0:0:0:0:0:1 - - [30/Mar/2020:18:18:34 +0900] "GET /DbExam7/top.jsp HTTP/1.1" 200 476
0:0:0:0:0:0:0:1 - - [30/Mar/2020:18:18:37 +0900] "POST /DbExam7/DMLServlet HTTP/1.1" 200 1075
0:0:0:0:0:0:0:1 - - [30/Mar/2020:18:18:38 +0900] "GET /DbExam7/top.jsp HTTP/1.1" 200 476
0:0:0:0:0:0:0:1 - - [30/Mar/2020:18:18:42 +0900] "POST /DbExam7/DMLServlet HTTP/1.1" 500 476
127.0.0.1 - - [30/Mar/2020:18:20:58 +0900] "GET / HTTP/1.1" 404 843
0:0:0:0:0:0:0:1 - - [30/Mar/2020:18:20:59 +0900] "GET /DbExam7/top.jsp HTTP/1.1" 200 476
0:0:0:0:0:0:0:1 - - [30/Mar/2020:18:21:01 +0900] "POST /DbExam7/DMLServlet HTTP/1.1" 200 1075
0:0:0:0:0:0:0:1 - - [30/Mar/2020:18:21:03 +0900] "GET /DbExam7/top.jsp HTTP/1.1" 200 476
0:0:0:0:0:0:0:1 - - [30/Mar/2020:18:21:05 +0900] "POST /DbExam7/DMLServlet HTTP/1.1" 500 476
127.0.0.1 - - [30/Mar/2020:18:22:16 +0900] "GET / HTTP/1.1" 404 843
0:0:0:0:0:0:0:1 - - [30/Mar/2020:18:22:17 +0900] "GET /DbExam7/top.jsp HTTP/1.1" 200 476
0:0:0:0:0:0:0:1 - - [30/Mar/2020:18:22:20 +0900] "POST /DbExam7/DMLServlet HTTP/1.1" 500 476
127.0.0.1 - - [30/Mar/2020:20:54:07 +0900] "GET / HTTP/1.1" 404 843
0:0:0:0:0:0:0:1 - - [30/Mar/2020:20:54:09 +0900] "GET /DbExam7/top.jsp HTTP/1.1" 200 476
0:0:0:0:0:0:0:1 - - [30/Mar/2020:20:54:18 +0900] "POST /DbExam7/DMLServlet HTTP/1.1" 500 476
127.0.0.1 - - [30/Mar/2020:20:55:01 +0900] "GET / HTTP/1.1" 404 843
0:0:0:0:0:0:0:1 - - [30/Mar/2020:20:55:02 +0900] "GET /DbExam7/top.jsp HTTP/1.1" 200 476
127.0.0.1 - - [30/Mar/2020:21:17:49 +0900] "GET / HTTP/1.1" 404 843
0:0:0:0:0:0:0:1 - - [30/Mar/2020:21:17:50 +0900] "GET /DbExam7/top.jsp HTTP/1.1" 200 476
0:0:0:0:0:0:0:1 - - [30/Mar/2020:21:17:54 +0900] "POST /DbExam7/DMLServlet HTTP/1.1" 500 1449
0:0:0:0:0:0:0:1 - - [30/Mar/2020:21:18:16 +0900] "GET /DbExam7/top.jsp HTTP/1.1" 200 476
0:0:0:0:0:0:0:1 - - [30/Mar/2020:21:18:18 +0900] "POST /DbExam7/DMLServlet HTTP/1.1" 200 -
127.0.0.1 - - [30/Mar/2020:21:19:31 +0900] "GET / HTTP/1.1" 404 843
0:0:0:0:0:0:0:1 - - [30/Mar/2020:21:19:32 +0900] "GET /DbExam7/top.jsp HTTP/1.1" 200 476
0:0:0:0:0:0:0:1 - - [30/Mar/2020:21:19:34 +0900] "POST /DbExam7/DMLServlet HTTP/1.1" 200 -
127.0.0.1 - - [30/Mar/2020:21:20:31 +0900] "GET / HTTP/1.1" 404 843
0:0:0:0:0:0:0:1 - - [30/Mar/2020:21:20:32 +0900] "GET /DbExam7/top.jsp HTTP/1.1" 200 476
0:0:0:0:0:0:0:1 - - [30/Mar/2020:21:20:34 +0900] "POST /DbExam7/DMLServlet HTTP/1.1" 200 1075
0:0:0:0:0:0:0:1 - - [30/Mar/2020:21:20:36 +0900] "GET /DbExam7/top.jsp HTTP/1.1" 200 476
0:0:0:0:0:0:0:1 - - [30/Mar/2020:21:20:45 +0900] "POST /DbExam7/DMLServlet HTTP/1.1" 200 572
0:0:0:0:0:0:0:1 - - [30/Mar/2020:21:20:47 +0900] "GET /DbExam7/top.jsp HTTP/1.1" 200 476
0:0:0:0:0:0:0:1 - - [30/Mar/2020:21:20:55 +0900] "POST /DbExam7/DMLServlet HTTP/1.1" 200 486
0:0:0:0:0:0:0:1 - - [30/Mar/2020:21:20:56 +0900] "GET /DbExam7/top.jsp HTTP/1.1" 200 476
127.0.0.1 - - [30/Mar/2020:21:23:33 +0900] "GET / HTTP/1.1" 404 843
0:0:0:0:0:0:0:1 - - [30/Mar/2020:21:23:34 +0900] "GET /DbExam7/top.jsp HTTP/1.1" 200 476
0:0:0:0:0:0:0:1 - - [30/Mar/2020:21:23:36 +0900] "POST /DbExam7/DMLServlet HTTP/1.1" 200 1075
0:0:0:0:0:0:0:1 - - [30/Mar/2020:21:23:37 +0900] "GET /DbExam7/top.jsp HTTP/1.1" 200 476
0:0:0:0:0:0:0:1 - - [30/Mar/2020:21:23:39 +0900] "POST /DbExam7/DMLServlet HTTP/1.1" 500 476
127.0.0.1 - - [30/Mar/2020:21:27:48 +0900] "GET / HTTP/1.1" 404 843
0:0:0:0:0:0:0:1 - - [30/Mar/2020:21:27:49 +0900] "GET /DbExam7/top.jsp HTTP/1.1" 200 476
0:0:0:0:0:0:0:1 - - [30/Mar/2020:21:27:51 +0900] "POST /DbExam7/DMLServlet HTTP/1.1" 200 1075
0:0:0:0:0:0:0:1 - - [30/Mar/2020:21:27:56 +0900] "GET /DbExam7/top.jsp HTTP/1.1" 200 476
0:0:0:0:0:0:0:1 - - [30/Mar/2020:21:28:04 +0900] "POST /DbExam7/DMLServlet HTTP/1.1" 200 472
127.0.0.1 - - [30/Mar/2020:21:29:31 +0900] "GET / HTTP/1.1" 404 843
0:0:0:0:0:0:0:1 - - [30/Mar/2020:21:29:32 +0900] "GET /DbExam7/top.jsp HTTP/1.1" 200 476
127.0.0.1 - - [30/Mar/2020:21:31:06 +0900] "GET / HTTP/1.1" 404 843
0:0:0:0:0:0:0:1 - - [30/Mar/2020:21:31:07 +0900] "GET /DbExam7/top.jsp HTTP/1.1" 200 476
0:0:0:0:0:0:0:1 - - [30/Mar/2020:21:31:08 +0900] "POST /DbExam7/DMLServlet HTTP/1.1" 500 1193
127.0.0.1 - - [30/Mar/2020:21:33:19 +0900] "GET / HTTP/1.1" 404 843
0:0:0:0:0:0:0:1 - - [30/Mar/2020:21:33:20 +0900] "GET /DbExam7/top.jsp HTTP/1.1" 200 476
0:0:0:0:0:0:0:1 - - [30/Mar/2020:21:33:22 +0900] "POST /DbExam7/DMLServlet HTTP/1.1" 500 1449
127.0.0.1 - - [30/Mar/2020:21:34:52 +0900] "GET / HTTP/1.1" 404 843
0:0:0:0:0:0:0:1 - - [30/Mar/2020:21:34:52 +0900] "GET /DbExam7/top.jsp HTTP/1.1" 200 476
0:0:0:0:0:0:0:1 - - [30/Mar/2020:21:34:55 +0900] "POST /DbExam7/DMLServlet HTTP/1.1" 200 1075
0:0:0:0:0:0:0:1 - - [30/Mar/2020:21:35:01 +0900] "GET /DbExam7/top.jsp HTTP/1.1" 200 476
0:0:0:0:0:0:0:1 - - [30/Mar/2020:21:35:07 +0900] "POST /DbExam7/DMLServlet HTTP/1.1" 200 472
0:0:0:0:0:0:0:1 - - [30/Mar/2020:21:35:11 +0900] "GET /DbExam7/top.jsp HTTP/1.1" 200 476
0:0:0:0:0:0:0:1 - - [30/Mar/2020:21:35:15 +0900] "POST /DbExam7/DMLServlet HTTP/1.1" 200 400
0:0:0:0:0:0:0:1 - - [30/Mar/2020:21:35:16 +0900] "GET /DbExam7/top.jsp HTTP/1.1" 200 476
127.0.0.1 - - [30/Mar/2020:21:37:13 +0900] "GET / HTTP/1.1" 404 843
0:0:0:0:0:0:0:1 - - [30/Mar/2020:21:37:14 +0900] "GET /DbExam7/top.jsp HTTP/1.1" 200 476
0:0:0:0:0:0:0:1 - - [30/Mar/2020:21:37:15 +0900] "POST /DbExam7/DMLServlet HTTP/1.1" 200 314
127.0.0.1 - - [30/Mar/2020:21:37:53 +0900] "GET / HTTP/1.1" 404 843
0:0:0:0:0:0:0:1 - - [30/Mar/2020:21:37:53 +0900] "GET /DbExam7/top.jsp HTTP/1.1" 200 476
0:0:0:0:0:0:0:1 - - [30/Mar/2020:21:37:55 +0900] "POST /DbExam7/DMLServlet HTTP/1.1" 200 314
0:0:0:0:0:0:0:1 - - [30/Mar/2020:21:37:58 +0900] "GET /DbExam7/top.jsp HTTP/1.1" 200 476
127.0.0.1 - - [30/Mar/2020:21:38:25 +0900] "GET / HTTP/1.1" 404 843
0:0:0:0:0:0:0:1 - - [30/Mar/2020:21:38:26 +0900] "GET /DbExam7/top.jsp HTTP/1.1" 200 476
0:0:0:0:0:0:0:1 - - [30/Mar/2020:21:38:27 +0900] "POST /DbExam7/DMLServlet HTTP/1.1" 200 314
0:0:0:0:0:0:0:1 - - [30/Mar/2020:21:38:29 +0900] "GET /DbExam7/top.jsp HTTP/1.1" 200 476
127.0.0.1 - - [30/Mar/2020:21:39:26 +0900] "GET / HTTP/1.1" 404 843
0:0:0:0:0:0:0:1 - - [30/Mar/2020:21:39:27 +0900] "GET /DbExam7/top.jsp HTTP/1.1" 200 476
0:0:0:0:0:0:0:1 - - [30/Mar/2020:21:39:37 +0900] "POST /DbExam7/DMLServlet HTTP/1.1" 200 1075
0:0:0:0:0:0:0:1 - - [30/Mar/2020:21:39:40 +0900] "GET /DbExam7/top.jsp HTTP/1.1" 200 476
127.0.0.1 - - [30/Mar/2020:21:40:50 +0900] "GET / HTTP/1.1" 404 843
0:0:0:0:0:0:0:1 - - [30/Mar/2020:21:40:51 +0900] "GET /DbExam7/top.jsp HTTP/1.1" 200 476
0:0:0:0:0:0:0:1 - - [30/Mar/2020:21:40:53 +0900] "POST /DbExam7/DMLServlet HTTP/1.1" 200 314
0:0:0:0:0:0:0:1 - - [30/Mar/2020:21:40:55 +0900] "GET /DbExam7/top.jsp HTTP/1.1" 200 476
127.0.0.1 - - [30/Mar/2020:21:45:22 +0900] "GET / HTTP/1.1" 404 843
0:0:0:0:0:0:0:1 - - [30/Mar/2020:21:45:22 +0900] "GET /DbExam7/top.jsp HTTP/1.1" 200 476
0:0:0:0:0:0:0:1 - - [30/Mar/2020:21:45:25 +0900] "POST /DbExam7/DMLServlet HTTP/1.1" 500 1075
0:0:0:0:0:0:0:1 - - [30/Mar/2020:21:45:27 +0900] "GET /DbExam7/top.jsp HTTP/1.1" 200 476
0:0:0:0:0:0:0:1 - - [30/Mar/2020:21:45:38 +0900] "POST /DbExam7/DMLServlet HTTP/1.1" 500 314
127.0.0.1 - - [30/Mar/2020:21:46:28 +0900] "GET / HTTP/1.1" 404 843
0:0:0:0:0:0:0:1 - - [30/Mar/2020:21:46:29 +0900] "GET /DbExam7/top.jsp HTTP/1.1" 200 476
127.0.0.1 - - [30/Mar/2020:21:54:00 +0900] "GET / HTTP/1.1" 404 843
0:0:0:0:0:0:0:1 - - [30/Mar/2020:21:54:01 +0900] "GET /DbExam7/top.jsp HTTP/1.1" 200 476
0:0:0:0:0:0:0:1 - - [30/Mar/2020:21:54:03 +0900] "POST /DbExam7/DMLServlet HTTP/1.1" 500 1075
0:0:0:0:0:0:0:1 - - [30/Mar/2020:21:54:05 +0900] "GET /DbExam7/top.jsp HTTP/1.1" 200 476
0:0:0:0:0:0:0:1 - - [30/Mar/2020:21:54:10 +0900] "POST /DbExam7/DMLServlet HTTP/1.1" 500 572
0:0:0:0:0:0:0:1 - - [30/Mar/2020:21:54:12 +0900] "GET /DbExam7/top.jsp HTTP/1.1" 200 476
0:0:0:0:0:0:0:1 - - [30/Mar/2020:21:54:16 +0900] "POST /DbExam7/DMLServlet HTTP/1.1" 500 400
127.0.0.1 - - [30/Mar/2020:21:56:06 +0900] "GET / HTTP/1.1" 404 843
0:0:0:0:0:0:0:1 - - [30/Mar/2020:21:56:06 +0900] "GET /DbExam7/top.jsp HTTP/1.1" 200 476
0:0:0:0:0:0:0:1 - - [30/Mar/2020:21:56:09 +0900] "POST /DbExam7/DMLServlet HTTP/1.1" 200 1075
0:0:0:0:0:0:0:1 - - [30/Mar/2020:21:56:10 +0900] "GET /DbExam7/top.jsp HTTP/1.1" 200 476
0:0:0:0:0:0:0:1 - - [30/Mar/2020:21:56:20 +0900] "POST /DbExam7/DMLServlet HTTP/1.1" 200 572
0:0:0:0:0:0:0:1 - - [30/Mar/2020:21:56:22 +0900] "GET /DbExam7/top.jsp HTTP/1.1" 200 476
0:0:0:0:0:0:0:1 - - [30/Mar/2020:21:56:25 +0900] "POST /DbExam7/DMLServlet HTTP/1.1" 200 400
0:0:0:0:0:0:0:1 - - [30/Mar/2020:21:56:27 +0900] "GET /DbExam7/top.jsp HTTP/1.1" 200 476
127.0.0.1 - - [30/Mar/2020:21:57:49 +0900] "GET / HTTP/1.1" 404 843
0:0:0:0:0:0:0:1 - - [30/Mar/2020:21:57:49 +0900] "GET /DbExam7/top.jsp HTTP/1.1" 200 476
0:0:0:0:0:0:0:1 - - [30/Mar/2020:21:57:51 +0900] "POST /DbExam7/DMLServlet HTTP/1.1" 200 1075
0:0:0:0:0:0:0:1 - - [30/Mar/2020:21:57:53 +0900] "GET /DbExam7/top.jsp HTTP/1.1" 200 476
0:0:0:0:0:0:0:1 - - [30/Mar/2020:21:58:03 +0900] "POST /DbExam7/DMLServlet HTTP/1.1" 200 572
0:0:0:0:0:0:0:1 - - [30/Mar/2020:21:58:05 +0900] "GET /DbExam7/top.jsp HTTP/1.1" 200 476
0:0:0:0:0:0:0:1 - - [30/Mar/2020:21:58:08 +0900] "POST /DbExam7/DMLServlet HTTP/1.1" 200 400
0:0:0:0:0:0:0:1 - - [30/Mar/2020:21:58:10 +0900] "GET /DbExam7/top.jsp HTTP/1.1" 200 476
0:0:0:0:0:0:0:1 - - [30/Mar/2020:21:58:14 +0900] "POST /DbExam7/DMLServlet HTTP/1.1" 200 476
0:0:0:0:0:0:0:1 - - [30/Mar/2020:21:58:18 +0900] "POST /DbExam7/DMLServlet HTTP/1.1" 200 476
0:0:0:0:0:0:0:1 - - [30/Mar/2020:22:00:34 +0900] "GET /DbExam7/top.jsp HTTP/1.1" 200 482
0:0:0:0:0:0:0:1 - - [30/Mar/2020:22:00:39 +0900] "POST /DbExam7/DMLServlet HTTP/1.1" 200 518
0:0:0:0:0:0:0:1 - - [30/Mar/2020:22:00:42 +0900] "POST /DbExam7/DMLServlet HTTP/1.1" 200 1075
0:0:0:0:0:0:0:1 - - [30/Mar/2020:22:00:44 +0900] "GET /DbExam7/top.jsp HTTP/1.1" 200 482
0:0:0:0:0:0:0:1 - - [30/Mar/2020:22:00:50 +0900] "POST /DbExam7/DMLServlet HTTP/1.1" 200 572
0:0:0:0:0:0:0:1 - - [30/Mar/2020:22:00:52 +0900] "GET /DbExam7/top.jsp HTTP/1.1" 200 482
0:0:0:0:0:0:0:1 - - [30/Mar/2020:22:00:57 +0900] "POST /DbExam7/DMLServlet HTTP/1.1" 200 400
0:0:0:0:0:0:0:1 - - [30/Mar/2020:22:01:37 +0900] "GET /DbExam7/top.jsp HTTP/1.1" 200 482
0:0:0:0:0:0:0:1 - - [30/Mar/2020:22:01:41 +0900] "POST /DbExam7/DMLServlet HTTP/1.1" 200 1075
0:0:0:0:0:0:0:1 - - [30/Mar/2020:22:01:50 +0900] "GET /DbExam7/top.jsp HTTP/1.1" 200 482
0:0:0:0:0:0:0:1 - - [30/Mar/2020:22:02:03 +0900] "POST /DbExam7/DMLServlet HTTP/1.1" 200 572
0:0:0:0:0:0:0:1 - - [30/Mar/2020:22:02:03 +0900] "POST /DbExam7/DMLServlet HTTP/1.1" 200 572
0:0:0:0:0:0:0:1 - - [30/Mar/2020:22:02:08 +0900] "GET /DbExam7/top.jsp HTTP/1.1" 200 482
0:0:0:0:0:0:0:1 - - [30/Mar/2020:22:02:19 +0900] "POST /DbExam7/DMLServlet HTTP/1.1" 200 400
0:0:0:0:0:0:0:1 - - [30/Mar/2020:22:02:26 +0900] "GET /DbExam7/top.jsp HTTP/1.1" 200 482
0:0:0:0:0:0:0:1 - - [30/Mar/2020:22:02:31 +0900] "POST /DbExam7/DMLServlet HTTP/1.1" 200 482
0:0:0:0:0:0:0:1 - - [30/Mar/2020:22:02:33 +0900] "GET /DbExam7/top.jsp HTTP/1.1" 200 482
0:0:0:0:0:0:0:1 - - [30/Mar/2020:22:02:37 +0900] "POST /DbExam7/DMLServlet HTTP/1.1" 200 518
0:0:0:0:0:0:0:1 - - [30/Mar/2020:22:02:55 +0900] "POST /DbExam7/DMLServlet HTTP/1.1" 200 1075
0:0:0:0:0:0:0:1 - - [30/Mar/2020:22:06:41 +0900] "GET /DbExam7/top.jsp HTTP/1.1" 200 482
0:0:0:0:0:0:0:1 - - [30/Mar/2020:22:06:49 +0900] "POST /DbExam7/DMLServlet HTTP/1.1" 200 572
127.0.0.1 - - [30/Mar/2020:22:07:25 +0900] "GET / HTTP/1.1" 404 843
0:0:0:0:0:0:0:1 - - [30/Mar/2020:22:07:26 +0900] "GET /DbExam7/top.jsp HTTP/1.1" 200 482
127.0.0.1 - - [30/Mar/2020:22:11:28 +0900] "GET / HTTP/1.1" 404 843
0:0:0:0:0:0:0:1 - - [30/Mar/2020:22:11:28 +0900] "GET /DbExam7/top.jsp HTTP/1.1" 200 482
127.0.0.1 - - [30/Mar/2020:22:13:12 +0900] "GET / HTTP/1.1" 404 843
0:0:0:0:0:0:0:1 - - [30/Mar/2020:22:13:13 +0900] "GET /DbExam7/top.jsp HTTP/1.1" 200 482
0:0:0:0:0:0:0:1 - - [30/Mar/2020:22:13:16 +0900] "POST /DbExam7/DMLServlet HTTP/1.1" 200 1075
0:0:0:0:0:0:0:1 - - [30/Mar/2020:22:13:18 +0900] "GET /DbExam7/top.jsp HTTP/1.1" 200 482
0:0:0:0:0:0:0:1 - - [30/Mar/2020:22:13:24 +0900] "POST /DbExam7/DMLServlet HTTP/1.1" 200 572
0:0:0:0:0:0:0:1 - - [30/Mar/2020:22:13:25 +0900] "GET /DbExam7/top.jsp HTTP/1.1" 200 482
0:0:0:0:0:0:0:1 - - [30/Mar/2020:22:13:31 +0900] "POST /DbExam7/DMLServlet HTTP/1.1" 200 400
0:0:0:0:0:0:0:1 - - [30/Mar/2020:22:13:32 +0900] "GET /DbExam7/top.jsp HTTP/1.1" 200 482
0:0:0:0:0:0:0:1 - - [30/Mar/2020:22:13:33 +0900] "POST /DbExam7/DMLServlet HTTP/1.1" 200 529
0:0:0:0:0:0:0:1 - - [30/Mar/2020:22:13:53 +0900] "POST /DbExam7/DMLServlet HTTP/1.1" 200 199
0:0:0:0:0:0:0:1 - - [30/Mar/2020:22:13:54 +0900] "GET /DbExam7/top.jsp HTTP/1.1" 200 482
0:0:0:0:0:0:0:1 - - [30/Mar/2020:22:13:55 +0900] "POST /DbExam7/DMLServlet HTTP/1.1" 200 1161
0:0:0:0:0:0:0:1 - - [30/Mar/2020:22:13:57 +0900] "GET /DbExam7/top.jsp HTTP/1.1" 200 482
0:0:0:0:0:0:0:1 - - [30/Mar/2020:22:14:03 +0900] "POST /DbExam7/DMLServlet HTTP/1.1" 200 400
0:0:0:0:0:0:0:1 - - [30/Mar/2020:22:14:04 +0900] "GET /DbExam7/top.jsp HTTP/1.1" 200 482
0:0:0:0:0:0:0:1 - - [30/Mar/2020:22:25:46 +0900] "GET /DbExam7/top.jsp HTTP/1.1" 200 482
0:0:0:0:0:0:0:1 - - [30/Mar/2020:22:25:59 +0900] "POST /DbExam7/DMLServlet HTTP/1.1" 200 472
0:0:0:0:0:0:0:1 - - [30/Mar/2020:22:26:00 +0900] "GET /DbExam7/top.jsp HTTP/1.1" 200 482
0:0:0:0:0:0:0:1 - - [30/Mar/2020:22:26:01 +0900] "POST /DbExam7/DMLServlet HTTP/1.1" 200 1161
0:0:0:0:0:0:0:1 - - [30/Mar/2020:22:26:02 +0900] "GET /DbExam7/top.jsp HTTP/1.1" 200 482
0:0:0:0:0:0:0:1 - - [30/Mar/2020:22:26:06 +0900] "POST /DbExam7/DMLServlet HTTP/1.1" 200 572
0:0:0:0:0:0:0:1 - - [30/Mar/2020:22:26:10 +0900] "GET /DbExam7/top.jsp HTTP/1.1" 200 482
0:0:0:0:0:0:0:1 - - [30/Mar/2020:22:26:26 +0900] "POST /DbExam7/DMLServlet HTTP/1.1" 200 199
0:0:0:0:0:0:0:1 - - [30/Mar/2020:22:26:27 +0900] "GET /DbExam7/top.jsp HTTP/1.1" 200 482
0:0:0:0:0:0:0:1 - - [30/Mar/2020:22:26:28 +0900] "POST /DbExam7/DMLServlet HTTP/1.1" 200 1247
0:0:0:0:0:0:0:1 - - [30/Mar/2020:22:26:31 +0900] "GET /DbExam7/top.jsp HTTP/1.1" 200 482
