127.0.0.1 - - [17/Mar/2020:10:11:51 +0900] "GET / HTTP/1.1" 404 843
0:0:0:0:0:0:0:1 - - [17/Mar/2020:10:11:53 +0900] "GET /JavaAdExam6/dictionary.jsp HTTP/1.1" 200 976
0:0:0:0:0:0:0:1 - - [17/Mar/2020:10:12:06 +0900] "POST /JavaAdExam6/AddServlet HTTP/1.1" 200 1013
0:0:0:0:0:0:0:1 - - [17/Mar/2020:10:12:11 +0900] "GET /JavaAdExam6/SearchServlet?english=apple HTTP/1.1" 200 1004
0:0:0:0:0:0:0:1 - - [17/Mar/2020:10:12:25 +0900] "GET /JavaAdExam6/SearchServlet?english=ant HTTP/1.1" 500 1138
127.0.0.1 - - [17/Mar/2020:10:13:45 +0900] "GET / HTTP/1.1" 404 843
0:0:0:0:0:0:0:1 - - [17/Mar/2020:10:13:46 +0900] "GET /JavaAdExam6/dictionary.jsp HTTP/1.1" 200 976
0:0:0:0:0:0:0:1 - - [17/Mar/2020:10:13:56 +0900] "GET /JavaAdExam6/SearchServlet?english=orange HTTP/1.1" 500 1138
127.0.0.1 - - [17/Mar/2020:10:21:43 +0900] "GET / HTTP/1.1" 404 843
0:0:0:0:0:0:0:1 - - [17/Mar/2020:10:21:44 +0900] "GET /JavaAdExam6/dictionary.jsp HTTP/1.1" 200 976
0:0:0:0:0:0:0:1 - - [17/Mar/2020:10:21:50 +0900] "GET /JavaAdExam6/SearchServlet?english=aaa HTTP/1.1" 200 976
0:0:0:0:0:0:0:1 - - [17/Mar/2020:10:21:53 +0900] "GET /JavaAdExam6/SearchServlet?english=aaa HTTP/1.1" 200 976
127.0.0.1 - - [17/Mar/2020:10:22:25 +0900] "GET / HTTP/1.1" 404 843
0:0:0:0:0:0:0:1 - - [17/Mar/2020:10:22:26 +0900] "GET /JavaAdExam6/SearchServlet HTTP/1.1" 200 976
0:0:0:0:0:0:0:1 - - [17/Mar/2020:10:22:29 +0900] "GET /JavaAdExam6/SearchServlet?english=aaa HTTP/1.1" 200 976
0:0:0:0:0:0:0:1 - - [17/Mar/2020:10:22:31 +0900] "GET /JavaAdExam6/SearchServlet?english=aaa HTTP/1.1" 200 976
127.0.0.1 - - [17/Mar/2020:10:23:49 +0900] "GET / HTTP/1.1" 404 843
0:0:0:0:0:0:0:1 - - [17/Mar/2020:10:23:50 +0900] "GET /JavaAdExam6/dictionary.jsp HTTP/1.1" 200 976
0:0:0:0:0:0:0:1 - - [17/Mar/2020:10:23:52 +0900] "GET /JavaAdExam6/SearchServlet?english=aaa HTTP/1.1" 200 976
0:0:0:0:0:0:0:1 - - [17/Mar/2020:10:24:02 +0900] "GET /JavaAdExam6/SearchServlet?english=aaaaa HTTP/1.1" 200 976
127.0.0.1 - - [17/Mar/2020:10:24:52 +0900] "GET / HTTP/1.1" 404 843
0:0:0:0:0:0:0:1 - - [17/Mar/2020:10:24:53 +0900] "GET /JavaAdExam6/dictionary.jsp HTTP/1.1" 200 976
0:0:0:0:0:0:0:1 - - [17/Mar/2020:10:24:55 +0900] "GET /JavaAdExam6/SearchServlet?english=zzz HTTP/1.1" 200 976
0:0:0:0:0:0:0:1 - - [17/Mar/2020:10:25:01 +0900] "GET /JavaAdExam6/SearchServlet?english=zzzz HTTP/1.1" 200 976
127.0.0.1 - - [17/Mar/2020:10:28:33 +0900] "GET / HTTP/1.1" 404 843
0:0:0:0:0:0:0:1 - - [17/Mar/2020:10:28:34 +0900] "GET /JavaAdExam6/dictionary.jsp HTTP/1.1" 200 976
0:0:0:0:0:0:0:1 - - [17/Mar/2020:10:28:37 +0900] "GET /JavaAdExam6/SearchServlet?english=aaa HTTP/1.1" 200 976
0:0:0:0:0:0:0:1 - - [17/Mar/2020:10:28:49 +0900] "POST /JavaAdExam6/AddServlet HTTP/1.1" 200 1013
0:0:0:0:0:0:0:1 - - [17/Mar/2020:10:28:54 +0900] "GET /JavaAdExam6/SearchServlet?english=apple HTTP/1.1" 200 1004
0:0:0:0:0:0:0:1 - - [17/Mar/2020:10:28:59 +0900] "GET /JavaAdExam6/SearchServlet?english=orange HTTP/1.1" 200 976
127.0.0.1 - - [17/Mar/2020:10:29:54 +0900] "GET / HTTP/1.1" 404 843
0:0:0:0:0:0:0:1 - - [17/Mar/2020:10:29:55 +0900] "GET /JavaAdExam6/dictionary.jsp HTTP/1.1" 200 976
0:0:0:0:0:0:0:1 - - [17/Mar/2020:10:30:08 +0900] "POST /JavaAdExam6/AddServlet HTTP/1.1" 200 1013
0:0:0:0:0:0:0:1 - - [17/Mar/2020:10:30:12 +0900] "GET /JavaAdExam6/SearchServlet?english=orange HTTP/1.1" 200 1004
0:0:0:0:0:0:0:1 - - [17/Mar/2020:10:30:16 +0900] "GET /JavaAdExam6/SearchServlet?english=apple HTTP/1.1" 200 976
0:0:0:0:0:0:0:1 - - [17/Mar/2020:10:30:18 +0900] "GET /JavaAdExam6/SearchServlet?english=aaaa HTTP/1.1" 200 976
0:0:0:0:0:0:0:1 - - [17/Mar/2020:10:30:20 +0900] "GET /JavaAdExam6/SearchServlet?english=ant HTTP/1.1" 200 976
127.0.0.1 - - [17/Mar/2020:10:33:52 +0900] "GET / HTTP/1.1" 404 843
0:0:0:0:0:0:0:1 - - [17/Mar/2020:10:33:54 +0900] "GET /JavaAdExam6/dictionary.jsp HTTP/1.1" 200 909
0:0:0:0:0:0:0:1 - - [17/Mar/2020:10:34:04 +0900] "POST /JavaAdExam6/AddServlet HTTP/1.1" 200 1005
0:0:0:0:0:0:0:1 - - [17/Mar/2020:10:34:07 +0900] "GET /JavaAdExam6/SearchServlet?english=apple HTTP/1.1" 200 996
0:0:0:0:0:0:0:1 - - [17/Mar/2020:10:34:10 +0900] "GET /JavaAdExam6/SearchServlet?english=or HTTP/1.1" 200 1017
127.0.0.1 - - [17/Mar/2020:10:39:43 +0900] "GET / HTTP/1.1" 404 843
0:0:0:0:0:0:0:1 - - [17/Mar/2020:10:39:44 +0900] "GET /JavaAdExam6/dictionary.jsp HTTP/1.1" 200 909
0:0:0:0:0:0:0:1 - - [17/Mar/2020:10:39:52 +0900] "POST /JavaAdExam6/AddServlet HTTP/1.1" 200 1005
0:0:0:0:0:0:0:1 - - [17/Mar/2020:10:40:00 +0900] "POST /JavaAdExam6/AddServlet HTTP/1.1" 200 1005
0:0:0:0:0:0:0:1 - - [17/Mar/2020:10:40:14 +0900] "POST /JavaAdExam6/AddServlet HTTP/1.1" 200 1005
0:0:0:0:0:0:0:1 - - [17/Mar/2020:10:40:17 +0900] "GET /JavaAdExam6/SearchServlet?english=apple HTTP/1.1" 200 996
0:0:0:0:0:0:0:1 - - [17/Mar/2020:10:40:21 +0900] "GET /JavaAdExam6/SearchServlet?english=orange HTTP/1.1" 200 996
0:0:0:0:0:0:0:1 - - [17/Mar/2020:10:40:28 +0900] "GET /JavaAdExam6/SearchServlet?english=attack+on+titan HTTP/1.1" 200 1002
0:0:0:0:0:0:0:1 - - [17/Mar/2020:10:40:46 +0900] "POST /JavaAdExam6/AddServlet HTTP/1.1" 200 1005
0:0:0:0:0:0:0:1 - - [17/Mar/2020:10:40:52 +0900] "GET /JavaAdExam6/SearchServlet?english=resident+evil HTTP/1.1" 200 1017
0:0:0:0:0:0:0:1 - - [17/Mar/2020:10:40:57 +0900] "GET /JavaAdExam6/SearchServlet?english=resident+evile HTTP/1.1" 200 1008
0:0:0:0:0:0:0:1 - - [17/Mar/2020:10:41:08 +0900] "POST /JavaAdExam6/AddServlet HTTP/1.1" 200 1005
0:0:0:0:0:0:0:1 - - [17/Mar/2020:10:41:12 +0900] "GET /JavaAdExam6/SearchServlet?english=passenger HTTP/1.1" 200 1002
0:0:0:0:0:0:0:1 - - [17/Mar/2020:10:41:19 +0900] "GET /JavaAdExam6/SearchServlet?english=resident+evile HTTP/1.1" 200 1008
0:0:0:0:0:0:0:1 - - [17/Mar/2020:10:41:25 +0900] "GET /JavaAdExam6/SearchServlet?english=attack+on+titan HTTP/1.1" 200 1002
0:0:0:0:0:0:0:1 - - [17/Mar/2020:10:41:28 +0900] "GET /JavaAdExam6/SearchServlet?english=orange HTTP/1.1" 200 996
0:0:0:0:0:0:0:1 - - [17/Mar/2020:10:41:31 +0900] "GET /JavaAdExam6/SearchServlet?english=apple HTTP/1.1" 200 996
0:0:0:0:0:0:0:1 - - [17/Mar/2020:10:41:34 +0900] "GET /JavaAdExam6/SearchServlet?english=melon HTTP/1.1" 200 1017
127.0.0.1 - - [17/Mar/2020:10:55:57 +0900] "GET / HTTP/1.1" 404 843
0:0:0:0:0:0:0:1 - - [17/Mar/2020:10:56:00 +0900] "GET /JavaAdDevExam6/input.jsp HTTP/1.1" 200 724
0:0:0:0:0:0:0:1 - - [17/Mar/2020:10:56:03 +0900] "POST /JavaAdDevExam6/InputServlet HTTP/1.1" 500 820
0:0:0:0:0:0:0:1 - - [17/Mar/2020:10:56:13 +0900] "POST /JavaAdDevExam6/InputServlet HTTP/1.1" 500 1148
127.0.0.1 - - [17/Mar/2020:11:02:36 +0900] "GET / HTTP/1.1" 404 843
0:0:0:0:0:0:0:1 - - [17/Mar/2020:11:02:37 +0900] "GET /JavaAdDevExam6/input.jsp HTTP/1.1" 200 724
0:0:0:0:0:0:0:1 - - [17/Mar/2020:11:02:40 +0900] "POST /JavaAdDevExam6/InputServlet HTTP/1.1" 500 820
0:0:0:0:0:0:0:1 - - [17/Mar/2020:11:02:41 +0900] "POST /JavaAdDevExam6/InputServlet HTTP/1.1" 500 820
0:0:0:0:0:0:0:1 - - [17/Mar/2020:11:02:43 +0900] "POST /JavaAdDevExam6/InputServlet HTTP/1.1" 500 820
0:0:0:0:0:0:0:1 - - [17/Mar/2020:11:02:45 +0900] "POST /JavaAdDevExam6/InputServlet HTTP/1.1" 500 820
127.0.0.1 - - [17/Mar/2020:11:38:41 +0900] "GET / HTTP/1.1" 404 843
0:0:0:0:0:0:0:1 - - [17/Mar/2020:11:38:42 +0900] "GET /JavaAdDevExam6/input.jsp HTTP/1.1" 200 724
0:0:0:0:0:0:0:1 - - [17/Mar/2020:11:38:55 +0900] "POST /JavaAdDevExam6/InputServlet HTTP/1.1" 500 2754
0:0:0:0:0:0:0:1 - - [17/Mar/2020:11:39:57 +0900] "GET /JavaAdDevExam6/input.jsp HTTP/1.1" 200 724
0:0:0:0:0:0:0:1 - - [17/Mar/2020:11:40:06 +0900] "POST /JavaAdDevExam6/InputServlet HTTP/1.1" 500 3090
0:0:0:0:0:0:0:1 - - [17/Mar/2020:11:40:29 +0900] "GET /JavaAdDevExam6/input.jsp HTTP/1.1" 200 724
0:0:0:0:0:0:0:1 - - [17/Mar/2020:11:40:34 +0900] "POST /JavaAdDevExam6/InputServlet HTTP/1.1" 200 1822
0:0:0:0:0:0:0:1 - - [17/Mar/2020:11:40:38 +0900] "GET /JavaAdDevExam6/input.jsp HTTP/1.1" 200 724
0:0:0:0:0:0:0:1 - - [17/Mar/2020:11:40:44 +0900] "POST /JavaAdDevExam6/InputServlet HTTP/1.1" 200 1822
127.0.0.1 - - [17/Mar/2020:11:43:34 +0900] "GET / HTTP/1.1" 404 843
0:0:0:0:0:0:0:1 - - [17/Mar/2020:11:43:34 +0900] "GET /JavaAdDevExam6/input.jsp HTTP/1.1" 200 724
0:0:0:0:0:0:0:1 - - [17/Mar/2020:11:43:44 +0900] "POST /JavaAdDevExam6/InputServlet HTTP/1.1" 200 1822
0:0:0:0:0:0:0:1 - - [17/Mar/2020:11:43:46 +0900] "GET /JavaAdDevExam6/input.jsp HTTP/1.1" 200 724
0:0:0:0:0:0:0:1 - - [17/Mar/2020:11:43:51 +0900] "POST /JavaAdDevExam6/InputServlet HTTP/1.1" 200 1851
0:0:0:0:0:0:0:1 - - [17/Mar/2020:11:44:49 +0900] "GET /JavaAdDevExam6/input.jsp HTTP/1.1" 200 724
0:0:0:0:0:0:0:1 - - [17/Mar/2020:11:44:56 +0900] "POST /JavaAdDevExam6/InputServlet HTTP/1.1" 200 1958
0:0:0:0:0:0:0:1 - - [17/Mar/2020:11:45:02 +0900] "GET /JavaAdDevExam6/input.jsp HTTP/1.1" 200 724
127.0.0.1 - - [17/Mar/2020:11:48:40 +0900] "GET / HTTP/1.1" 404 843
0:0:0:0:0:0:0:1 - - [17/Mar/2020:11:48:41 +0900] "GET /JavaAdDevExam6/input.jsp HTTP/1.1" 200 724
0:0:0:0:0:0:0:1 - - [17/Mar/2020:11:48:49 +0900] "POST /JavaAdDevExam6/InputServlet HTTP/1.1" 200 1769
0:0:0:0:0:0:0:1 - - [17/Mar/2020:11:48:54 +0900] "GET /JavaAdDevExam6/input.jsp HTTP/1.1" 200 724
0:0:0:0:0:0:0:1 - - [17/Mar/2020:11:49:00 +0900] "POST /JavaAdDevExam6/InputServlet HTTP/1.1" 200 1821
127.0.0.1 - - [17/Mar/2020:11:49:35 +0900] "GET / HTTP/1.1" 404 843
0:0:0:0:0:0:0:1 - - [17/Mar/2020:11:49:36 +0900] "GET /JavaAdDevExam6/input.jsp HTTP/1.1" 200 724
0:0:0:0:0:0:0:1 - - [17/Mar/2020:11:49:52 +0900] "POST /JavaAdDevExam6/InputServlet HTTP/1.1" 200 1767
0:0:0:0:0:0:0:1 - - [17/Mar/2020:11:49:54 +0900] "GET /JavaAdDevExam6/input.jsp HTTP/1.1" 200 724
0:0:0:0:0:0:0:1 - - [17/Mar/2020:11:50:00 +0900] "POST /JavaAdDevExam6/InputServlet HTTP/1.1" 200 1818
0:0:0:0:0:0:0:1 - - [17/Mar/2020:11:50:02 +0900] "GET /JavaAdDevExam6/input.jsp HTTP/1.1" 200 724
0:0:0:0:0:0:0:1 - - [17/Mar/2020:11:50:09 +0900] "POST /JavaAdDevExam6/InputServlet HTTP/1.1" 200 1879
0:0:0:0:0:0:0:1 - - [17/Mar/2020:11:50:10 +0900] "GET /JavaAdDevExam6/input.jsp HTTP/1.1" 200 724
0:0:0:0:0:0:0:1 - - [17/Mar/2020:11:52:25 +0900] "GET /JavaAdDevExam6/input.jsp HTTP/1.1" 200 724
0:0:0:0:0:0:0:1 - - [17/Mar/2020:11:52:46 +0900] "POST /JavaAdDevExam6/InputServlet HTTP/1.1" 200 1941
0:0:0:0:0:0:0:1 - - [17/Mar/2020:11:52:51 +0900] "GET /JavaAdDevExam6/input.jsp HTTP/1.1" 200 724
0:0:0:0:0:0:0:1 - - [17/Mar/2020:11:52:52 +0900] "POST /JavaAdDevExam6/InputServlet HTTP/1.1" 200 820
0:0:0:0:0:0:0:1 - - [17/Mar/2020:11:52:53 +0900] "POST /JavaAdDevExam6/InputServlet HTTP/1.1" 200 820
0:0:0:0:0:0:0:1 - - [17/Mar/2020:11:52:55 +0900] "POST /JavaAdDevExam6/InputServlet HTTP/1.1" 200 820
