<?xml version="1.0" encoding="UTF-8"?>
<session version="1.0">
<refactoring accessors="true" comment="Delete element from プロジェクト &apos;JSP_HelloWorld&apos;&#x0D;&#x0A;- 元のプロジェクト: &apos;JSP_HelloWorld&apos;&#x0D;&#x0A;- オリジナル要素: &apos;javaBasic4.jsp&apos;" description="要素を削除" element1="WebContent/javaBasic4.jsp" elements="0" flags="589830" id="org.eclipse.jdt.ui.delete" resources="1" stamp="1583480118774" subPackages="false" version="1.0"/>
</session>